{
    "borderAreas": [
        {
            "cereal_class_version": 1,
            "vertices": [
                {
                    "cereal_class_version": 0,
                    "position": {
                        "cereal_class_version": 0,
                        "value0": -280.0,
                        "value1": -50.0
                    }
                },
                {
                    "position": {
                        "value0": -280.0,
                        "value1": 40.0
                    }
                },
                {
                    "position": {
                        "value0": -140.0,
                        "value1": 80.0
                    }
                },
                {
                    "position": {
                        "value0": 110.0,
                        "value1": 80.0
                    }
                },
                {
                    "position": {
                        "value0": 110.0,
                        "value1": 30.0
                    }
                },
                {
                    "position": {
                        "value0": -95.0,
                        "value1": 30.0
                    }
                },
                {
                    "position": {
                        "value0": -95.0,
                        "value1": -50.0
                    }
                }
            ],
            "holes": [],
            "color": 1
        },
        {
            "vertices": [
                {
                    "position": {
                        "value0": 190.0,
                        "value1": 60.0
                    }
                },
                {
                    "position": {
                        "value0": 220.0,
                        "value1": 10.0
                    }
                },
                {
                    "position": {
                        "value0": 160.0,
                        "value1": 20.0
                    }
                }
            ],
            "holes": [],
            "color": 0
        },
        {
            "vertices": [],
            "holes": [],
            "color": 1
        },
        {
            "vertices": [],
            "holes": [],
            "color": 1
        },
        {
            "vertices": [
                {
                    "position": {
                        "value0": -350.0,
                        "value1": 220.0
                    }
                },
                {
                    "position": {
                        "value0": 350.0,
                        "value1": 215.0
                    }
                },
                {
                    "position": {
                        "value0": 335.0,
                        "value1": -200.0
                    }
                },
                {
                    "position": {
                        "value0": -345.0,
                        "value1": -200.0
                    }
                }
            ],
            "holes": [
                [
                    {
                        "position": {
                            "value0": -320.0,
                            "value1": 180.0
                        }
                    },
                    {
                        "position": {
                            "value0": 320.0,
                            "value1": 180.0
                        }
                    },
                    {
                        "position": {
                            "value0": 320.0,
                            "value1": -180.0
                        }
                    },
                    {
                        "position": {
                            "value0": -320.0,
                            "value1": -180.0
                        }
                    }
                ]
            ],
            "color": 2
        },
        {
            "vertices": [],
            "holes": [],
            "color": 1
        },
        {
            "vertices": [
                {
                    "position": {
                        "value0": 50.0,
                        "value1": -55.0
                    }
                },
                {
                    "position": {
                        "value0": 170.0,
                        "value1": -45.0
                    }
                },
                {
                    "position": {
                        "value0": 160.0,
                        "value1": -125.0
                    }
                },
                {
                    "position": {
                        "value0": 5.0,
                        "value1": -125.0
                    }
                }
            ],
            "holes": [],
            "color": 0
        },
        {
            "vertices": [
                {
                    "position": {
                        "value0": 105.0,
                        "value1": 105.0
                    }
                },
                {
                    "position": {
                        "value0": -215.0,
                        "value1": 105.0
                    }
                },
                {
                    "position": {
                        "value0": -280.0,
                        "value1": 40.0
                    }
                },
                {
                    "position": {
                        "value0": -140.0,
                        "value1": 80.0
                    }
                },
                {
                    "position": {
                        "value0": 110.0,
                        "value1": 80.0
                    }
                }
            ],
            "holes": [],
            "color": 0
        },
        {
            "vertices": [
                {
                    "position": {
                        "value0": -245.0,
                        "value1": -110.0
                    }
                },
                {
                    "position": {
                        "value0": -220.0,
                        "value1": -110.0
                    }
                },
                {
                    "position": {
                        "value0": -215.0,
                        "value1": -130.0
                    }
                },
                {
                    "position": {
                        "value0": -245.0,
                        "value1": -130.0
                    }
                }
            ],
            "holes": [],
            "color": 0
        },
        {
            "vertices": [
                {
                    "position": {
                        "value0": -70.0,
                        "value1": -5.0
                    }
                },
                {
                    "position": {
                        "value0": -50.0,
                        "value1": 0.0
                    }
                },
                {
                    "position": {
                        "value0": -45.0,
                        "value1": -35.0
                    }
                },
                {
                    "position": {
                        "value0": -70.0,
                        "value1": -35.0
                    }
                }
            ],
            "holes": [],
            "color": 2
        }
    ],
    "editorObjects": []
}